<svg width="20" height="20" viewBox="0 0 20 20" fill="none" xmlns="http://www.w3.org/2000/svg">
<path fill-rule="evenodd" clip-rule="evenodd" d="M1.25 3.5C1.25 2.25736 2.25736 1.25 3.5 1.25H6.5C7.74264 1.25 8.75 2.25736 8.75 3.5V6.5C8.75 7.74264 7.74264 8.75 6.5 8.75H3.5C2.25736 8.75 1.25 7.74264 1.25 6.5V3.5ZM3.5 2.75C3.08579 2.75 2.75 3.08579 2.75 3.5V6.5C2.75 6.91421 3.08579 7.25 3.5 7.25H6.5C6.91421 7.25 7.25 6.91421 7.25 6.5V3.5C7.25 3.08579 6.91421 2.75 6.5 2.75H3.5ZM11.25 3.5C11.25 2.25736 12.2574 1.25 13.5 1.25H16.5C17.7426 1.25 18.75 2.25736 18.75 3.5V6.5C18.75 7.74264 17.7426 8.75 16.5 8.75H13.5C12.2574 8.75 11.25 7.74264 11.25 6.5V3.5ZM13.5 2.75C13.0858 2.75 12.75 3.08579 12.75 3.5V6.5C12.75 6.91421 13.0858 7.25 13.5 7.25H16.5C16.9142 7.25 17.25 6.91421 17.25 6.5V3.5C17.25 3.08579 16.9142 2.75 16.5 2.75H13.5ZM1.25 13.5C1.25 12.2574 2.25736 11.25 3.5 11.25H6.5C7.74264 11.25 8.75 12.2574 8.75 13.5V16.5C8.75 17.7426 7.74264 18.75 6.5 18.75H3.5C2.25736 18.75 1.25 17.7426 1.25 16.5V13.5ZM3.5 12.75C3.08579 12.75 2.75 13.0858 2.75 13.5V16.5C2.75 16.9142 3.08579 17.25 3.5 17.25H6.5C6.91421 17.25 7.25 16.9142 7.25 16.5V13.5C7.25 13.0858 6.91421 12.75 6.5 12.75H3.5ZM11.25 13.5C11.25 12.2574 12.2574 11.25 13.5 11.25H16.5C17.7426 11.25 18.75 12.2574 18.75 13.5V16.5C18.75 17.7426 17.7426 18.75 16.5 18.75H13.5C12.2574 18.75 11.25 17.7426 11.25 16.5V13.5ZM13.5 12.75C13.0858 12.75 12.75 13.0858 12.75 13.5V16.5C12.75 16.9142 13.0858 17.25 13.5 17.25H16.5C16.9142 17.25 17.25 16.9142 17.25 16.5V13.5C17.25 13.0858 16.9142 12.75 16.5 12.75H13.5Z" fill="white"/>
</svg>
