<svg width="20" height="20" viewBox="0 0 20 20" fill="none" xmlns="http://www.w3.org/2000/svg">
<path fill-rule="evenodd" clip-rule="evenodd" d="M4.24999 2.5C4.24999 1.80964 4.80963 1.25 5.49999 1.25H14.5C15.1903 1.25 15.75 1.80964 15.75 2.5V9.25H17.7929C18.9065 9.25 19.4642 10.5964 18.6768 11.3839L10.5303 19.5303C10.2374 19.8232 9.76255 19.8232 9.46966 19.5303L1.32321 11.3839C0.535753 10.5964 1.09347 9.25 2.2071 9.25H4.24999V2.5ZM5.74999 2.75V10C5.74999 10.4142 5.4142 10.75 4.99999 10.75H2.81065L9.99999 17.9393L17.1893 10.75H15C14.5858 10.75 14.25 10.4142 14.25 10V2.75H5.74999Z" fill="white"/>
<path d="M9.5 4.49998C9.5 4.22384 9.72386 3.99998 10 3.99998C10.2761 3.99998 10.5 4.22384 10.5 4.49998L10.5 5.5H10.7132C11.3765 5.5 11.9915 5.84591 12.3362 6.41247L12.3566 6.44597C12.5001 6.68188 12.4252 6.98948 12.1893 7.13301C11.9534 7.27653 11.6458 7.20164 11.5023 6.96573L11.4819 6.93222C11.3186 6.66377 11.0273 6.5 10.7132 6.5H9.37008C8.88954 6.5 8.49999 6.88955 8.49999 7.37007C8.49999 7.73235 8.74477 8.04771 9.09425 8.13705C9.43734 8.22477 9.81368 8.32045 10.1213 8.39735C10.3834 8.46289 10.7273 8.53168 11.0681 8.59384C11.9851 8.76107 12.6807 9.55257 12.6807 10.504C12.6807 11.6064 11.7871 12.5 10.6847 12.5H10.5L10.5 13.5C10.5 13.7761 10.2761 14 10 14C9.72386 14 9.5 13.7761 9.5 13.5L9.49999 12.5H9.27685C8.54708 12.5 7.88181 12.082 7.5651 11.4246L7.38856 11.0581C7.26872 10.8093 7.37324 10.5105 7.62202 10.3906C7.87081 10.2708 8.16963 10.3753 8.28948 10.6241L8.46602 10.9906C8.61604 11.302 8.93117 11.5 9.27685 11.5H10.6847C11.2348 11.5 11.6807 11.0541 11.6807 10.504C11.6807 10.0549 11.3496 9.66167 10.8887 9.57761C10.5418 9.51435 10.1727 9.44099 9.87872 9.36749C9.56856 9.28995 9.1902 9.19375 8.84656 9.10589C8.05292 8.90299 7.49999 8.18767 7.49999 7.37007C7.49999 6.33725 8.33727 5.5 9.37008 5.5H9.49999L9.5 4.49998Z" fill="white"/>
</svg>
