<svg width="20" height="20" viewBox="0 0 20 20" fill="none" xmlns="http://www.w3.org/2000/svg">
<path fill-rule="evenodd" clip-rule="evenodd" d="M19.7115 0.762819C19.8425 1.15578 19.6301 1.58052 19.2372 1.7115L16.8038 2.52262C16.7166 2.5517 16.6523 2.62635 16.6366 2.71696L16.0454 6.116C16.044 6.12496 16.0425 6.13388 16.0408 6.14273L14.826 13.1279C14.7063 13.8158 14.0464 14.2723 13.3606 14.1417L3.61411 12.2852C3.21521 12.2092 2.87808 11.9442 2.71004 11.5745L0.638543 7.01724C0.262351 6.18962 0.867387 5.24999 1.7765 5.24999H14.6735L15.1587 2.45995C15.2691 1.82567 15.7187 1.30318 16.3295 1.0996L18.7628 0.288477C19.1558 0.157492 19.5805 0.369862 19.7115 0.762819ZM5.99999 6.74999H2.16475L2.96889 8.5191L5.99999 8.6454V6.74999ZM6.99999 6.74999V8.68707L9.99999 8.81207V6.74999H6.99999ZM11 6.74999V8.85373L14.0249 8.97977L14.4127 6.74999H11ZM13.8521 9.97344L11 9.8546V12.1651L13.3917 12.6206L13.8521 9.97344ZM9.99999 11.9746V9.81293L6.99999 9.68793V11.4032L9.99999 11.9746ZM5.99999 11.2127V9.64627L3.43262 9.53929L4.022 10.8359L5.99999 11.2127Z" fill="white"/>
<path fill-rule="evenodd" clip-rule="evenodd" d="M6.5 15.25C5.25736 15.25 4.25 16.2574 4.25 17.5C4.25 18.7426 5.25736 19.75 6.5 19.75C7.74264 19.75 8.75 18.7426 8.75 17.5C8.75 16.2574 7.74264 15.25 6.5 15.25ZM5.75 17.5C5.75 17.0858 6.08579 16.75 6.5 16.75C6.91421 16.75 7.25 17.0858 7.25 17.5C7.25 17.9142 6.91421 18.25 6.5 18.25C6.08579 18.25 5.75 17.9142 5.75 17.5Z" fill="white"/>
<path fill-rule="evenodd" clip-rule="evenodd" d="M13.5 15.25C12.2574 15.25 11.25 16.2574 11.25 17.5C11.25 18.7426 12.2574 19.75 13.5 19.75C14.7426 19.75 15.75 18.7426 15.75 17.5C15.75 16.2574 14.7426 15.25 13.5 15.25ZM12.75 17.5C12.75 17.0858 13.0858 16.75 13.5 16.75C13.9142 16.75 14.25 17.0858 14.25 17.5C14.25 17.9142 13.9142 18.25 13.5 18.25C13.0858 18.25 12.75 17.9142 12.75 17.5Z" fill="white"/>
</svg>
