<svg width="20" height="20" viewBox="0 0 20 20" fill="none" xmlns="http://www.w3.org/2000/svg">
<path fill-rule="evenodd" clip-rule="evenodd" d="M9.35367 4.25198C9.59279 3.67708 10.4072 3.67707 10.6463 4.25198L11.4024 6.06978L13.3649 6.22711C13.9855 6.27687 14.2372 7.05142 13.7643 7.45649L12.2691 8.73729L12.7259 10.6523C12.8704 11.258 12.2115 11.7367 11.6801 11.4121L10 10.3859L8.31985 11.4121C7.78848 11.7367 7.1296 11.258 7.27407 10.6523L7.73088 8.73729L6.23568 7.4565C5.76281 7.05143 6.01447 6.27687 6.63513 6.22711L8.5976 6.06978L9.35367 4.25198ZM10 5.30199L9.40364 6.73579C9.33164 6.90891 9.16883 7.0272 8.98194 7.04218L7.43403 7.16627L8.61337 8.17651C8.75577 8.29849 8.81795 8.48987 8.77445 8.67225L8.41414 10.1828L9.73937 9.37331C9.89938 9.27558 10.1006 9.27558 10.2606 9.37331L11.5859 10.1828L11.2255 8.67225C11.182 8.48987 11.2442 8.29849 11.3866 8.17651L12.566 7.16627L11.0181 7.04218C10.8312 7.0272 10.6684 6.90891 10.5963 6.73579L10 5.30199Z" fill="white"/>
<path fill-rule="evenodd" clip-rule="evenodd" d="M10.3902 0.359491C10.1505 0.213503 9.84945 0.213503 9.60981 0.359491L8.18526 1.22731L6.51766 1.18803C6.23713 1.18142 5.97637 1.33197 5.84183 1.57822L5.04205 3.04205L3.57822 3.84183C3.33197 3.97637 3.18142 4.23713 3.18803 4.51766L3.22731 6.18526L2.35949 7.60981C2.2135 7.84945 2.2135 8.15055 2.35949 8.39019L3.22731 9.81474L3.18803 11.4823C3.18156 11.757 3.32571 12.0127 3.56282 12.1495L1.4689 15.7763C1.38226 15.9264 1.3795 16.1106 1.46161 16.2632C1.54371 16.4158 1.69898 16.515 1.87196 16.5254L4.97049 16.7114L6.68081 19.3018C6.77629 19.4464 6.93984 19.5313 7.11305 19.5261C7.28626 19.5209 7.44444 19.4264 7.53108 19.2763L9.625 15.6495C9.85699 15.7835 10.143 15.7835 10.375 15.6495L12.4689 19.2763C12.5555 19.4264 12.7137 19.5209 12.8869 19.5261C13.0601 19.5313 13.2237 19.4464 13.3192 19.3018L15.0295 16.7114L18.128 16.5254C18.301 16.515 18.4563 16.4158 18.5384 16.2632C18.6205 16.1106 18.6177 15.9264 18.5311 15.7763L16.4372 12.1495C16.6743 12.0127 16.8184 11.757 16.812 11.4823L16.7727 9.81474L17.6405 8.39019C17.7865 8.15055 17.7865 7.84945 17.6405 7.60981L16.7727 6.18526L16.812 4.51766C16.8186 4.23713 16.668 3.97637 16.4218 3.84183L14.958 3.04205L14.1582 1.57822C14.0236 1.33197 13.7629 1.18142 13.4823 1.18803L11.8147 1.22731L10.3902 0.359491ZM15.5595 12.6293L14.958 12.958L14.1582 14.4218C14.0236 14.668 13.7629 14.8186 13.4823 14.812L11.8147 14.7727L11.2293 15.1293L12.9304 18.0757L14.3327 15.9517C14.4194 15.8204 14.5629 15.7376 14.72 15.7281L17.2605 15.5757L15.5595 12.6293ZM8.77064 15.1293L8.18526 14.7727L6.51766 14.812C6.23713 14.8186 5.97637 14.668 5.84183 14.4218L5.04205 12.958L4.44052 12.6293L2.73944 15.5757L5.27995 15.7281C5.43705 15.7376 5.58054 15.8204 5.66725 15.9517L7.06957 18.0757L8.77064 15.1293ZM8.77775 2.62279L10 1.87821L11.2223 2.62279C11.3449 2.69753 11.4865 2.73546 11.6301 2.73207L13.0609 2.69837L13.7471 3.95433C13.816 4.08039 13.9196 4.18402 14.0457 4.25289L15.3016 4.9391L15.2679 6.3699C15.2645 6.51351 15.3025 6.65507 15.3772 6.77775L16.1218 8L15.3772 9.22225C15.3025 9.34493 15.2645 9.48649 15.2679 9.6301L15.3016 11.0609L14.0457 11.7471C13.9196 11.816 13.816 11.9196 13.7471 12.0457L13.0609 13.3016L11.6301 13.2679C11.4865 13.2645 11.3449 13.3025 11.2223 13.3772L10 14.1218L8.77775 13.3772C8.65507 13.3025 8.51351 13.2645 8.3699 13.2679L6.9391 13.3016L6.25289 12.0457C6.18402 11.9196 6.08039 11.816 5.95433 11.7471L4.69837 11.0609L4.73207 9.6301C4.73546 9.48649 4.69753 9.34493 4.62279 9.22225L3.87821 8L4.62279 6.77775C4.69753 6.65507 4.73546 6.51351 4.73207 6.3699L4.69837 4.9391L5.95433 4.25289C6.08039 4.18402 6.18402 4.08039 6.25289 3.95433L6.9391 2.69837L8.3699 2.73207C8.51351 2.73546 8.65507 2.69753 8.77775 2.62279Z" fill="white"/>
</svg>
