<svg width="20" height="20" viewBox="0 0 20 20" fill="none" xmlns="http://www.w3.org/2000/svg">
<path fill-rule="evenodd" clip-rule="evenodd" d="M7 3.75C5.75736 3.75 4.75 4.75736 4.75 6C4.75 7.24264 5.75736 8.25 7 8.25C8.24264 8.25 9.25 7.24264 9.25 6C9.25 4.75736 8.24264 3.75 7 3.75ZM3.25 6C3.25 3.92893 4.92893 2.25 7 2.25C9.07107 2.25 10.75 3.92893 10.75 6C10.75 8.07107 9.07107 9.75 7 9.75C4.92893 9.75 3.25 8.07107 3.25 6Z" fill="white"/>
<path fill-rule="evenodd" clip-rule="evenodd" d="M0.25 15.9C0.25 13.3319 2.33188 11.25 4.9 11.25H9.1C11.6681 11.25 13.75 13.3319 13.75 15.9V17C13.75 17.4142 13.4142 17.75 13 17.75C12.5858 17.75 12.25 17.4142 12.25 17V15.9C12.25 14.1603 10.8397 12.75 9.1 12.75H4.9C3.1603 12.75 1.75 14.1603 1.75 15.9V17C1.75 17.4142 1.41421 17.75 1 17.75C0.585786 17.75 0.25 17.4142 0.25 17V15.9Z" fill="white"/>
<path fill-rule="evenodd" clip-rule="evenodd" d="M12.25 3C12.25 2.58579 12.5858 2.25 13 2.25C15.0711 2.25 16.75 3.92893 16.75 6C16.75 8.07107 15.0711 9.75 13 9.75C12.5858 9.75 12.25 9.41421 12.25 9C12.25 8.58579 12.5858 8.25 13 8.25C14.2426 8.25 15.25 7.24264 15.25 6C15.25 4.75736 14.2426 3.75 13 3.75C12.5858 3.75 12.25 3.41421 12.25 3Z" fill="white"/>
<path fill-rule="evenodd" clip-rule="evenodd" d="M14.25 12C14.25 11.5858 14.5858 11.25 15 11.25H15.1C17.6681 11.25 19.75 13.3319 19.75 15.9V17C19.75 17.4142 19.4142 17.75 19 17.75C18.5858 17.75 18.25 17.4142 18.25 17V15.9C18.25 14.1603 16.8397 12.75 15.1 12.75H15C14.5858 12.75 14.25 12.4142 14.25 12Z" fill="white"/>
</svg>
