<svg width="104" height="32" viewBox="0 0 104 32" fill="none" xmlns="http://www.w3.org/2000/svg">
<g clip-path="url(#clip0)">
<path d="M37.4862 11.5313H27.248L27.248 0H19.5058L19.5058 7.88661C19.4595 12.3554 19.6675 16.8241 20.1298 21.2813H19.9795C18.5653 17.4515 16.9056 13.7178 15.0107 10.1036L9.98401 0H0V32H7.74221V24.392C7.74221 19.2384 7.64977 14.4446 7.46488 10.1036H7.58044C9.18666 14.05 10.9893 17.9036 13 21.6527L18.2924 32H27.248V18.9946H37.4862V32H45.9333L45.9334 0H37.4862L37.4862 11.5313Z" fill="#50BBB7"/>
<path d="M50 0H53.0622L59.3716 10.2723V0H61.6827V13.8125H58.7938L52.3458 3.16875V13.7777H50V0Z" fill="#455C6F"/>
<path d="M70.6267 8.18345C70.6409 7.88761 70.5921 7.59214 70.4833 7.31683C70.3746 7.04153 70.2085 6.79276 69.9962 6.58721C69.7839 6.38165 69.5303 6.22407 69.2524 6.12502C68.9745 6.02597 68.6787 5.98775 68.3849 6.01292C67.7893 6.00671 67.2154 6.23767 66.7888 6.65529C66.3622 7.07291 66.1176 7.64321 66.1085 8.24149L70.6267 8.18345ZM66.12 9.94774C66.15 10.5543 66.4142 11.1252 66.8565 11.5392C67.2989 11.9531 67.8845 12.1775 68.4889 12.1647C69.448 12.1879 70.3609 11.7004 70.8925 10.8995L72.4756 12.1763C72.0415 12.7601 71.4732 13.2297 70.8192 13.545C70.1653 13.8603 69.445 14.012 68.72 13.987C68.0808 13.9998 67.4456 13.8822 66.8529 13.6413C66.2603 13.4004 65.7224 13.0412 65.2719 12.5855C64.8215 12.1297 64.4677 11.5869 64.2322 10.9899C63.9966 10.3928 63.884 9.75401 63.9014 9.11202C63.8773 8.4683 63.9852 7.82648 64.2184 7.2264C64.4516 6.62632 64.8051 6.08079 65.257 5.62366C65.7088 5.16653 66.2494 4.80755 66.8451 4.56902C67.4408 4.33049 68.079 4.21749 68.72 4.23703C71.1929 4.23703 72.8685 6.07096 72.8685 9.33256V9.98256L66.12 9.94774Z" fill="#455C6F"/>
<path d="M77.0746 8.7754L74.0355 4.44594H76.728L78.4844 7.25486L80.3911 4.43433H82.9218L79.9173 8.76379L83.4649 13.8013H80.7724L78.4729 10.4584L76.1618 13.8245H73.5386L77.0746 8.7754Z" fill="#455C6F"/>
<path d="M83.5573 6.41914V4.44593H85.3715V1.72986H87.544V4.43432H89.9706V6.41914H87.5902V10.5397C87.5902 11.4683 87.8329 12.0486 88.8151 12.0486C89.2311 12.0718 89.6471 11.979 90.0169 11.7584V13.7316C89.4391 13.9522 88.8267 14.045 88.2142 13.9986C85.8915 13.9986 85.3253 12.9191 85.3253 10.6906V6.41914H83.5573Z" fill="#455C6F"/>
<path d="M50 17.9286H52.3111V23.442H58.4009V17.9286H60.712V31.7411H58.4009V25.659H52.3111V31.7527H50V17.9286Z" fill="#455C6F"/>
<path d="M69.6098 26.1348C69.6307 25.8348 69.5869 25.5337 69.4813 25.2522C69.3757 24.9707 69.2109 24.7154 68.998 24.5038C68.7852 24.2922 68.5293 24.1293 68.248 24.0262C67.9667 23.923 67.6665 23.8821 67.368 23.9063C66.7724 23.9001 66.1985 24.131 65.7719 24.5486C65.3453 24.9663 65.1007 25.5366 65.0916 26.1348H69.6098ZM65.0916 27.8759C65.1214 28.4845 65.3848 29.0579 65.8265 29.4756C66.2682 29.8933 66.8539 30.1228 67.4605 30.1161C67.9233 30.1084 68.3773 29.9883 68.7838 29.7659C69.1903 29.5436 69.5372 29.2256 69.7947 28.8393L71.3778 30.1161C70.9539 30.7071 70.3944 31.1866 69.7466 31.514C69.0988 31.8413 68.382 32.0068 67.6569 31.9964C67.0146 32.0079 66.3767 31.8878 65.7822 31.6433C65.1877 31.3988 64.6491 31.0352 64.1992 30.5746C63.7493 30.114 63.3976 29.5661 63.1656 28.9644C62.9336 28.3627 62.8261 27.7198 62.8498 27.075C62.8193 26.4285 62.9221 25.7826 63.1516 25.1778C63.3812 24.573 63.7326 24.0224 64.1839 23.5604C64.6352 23.0984 65.1766 22.7349 65.7742 22.4929C66.3718 22.2508 67.0128 22.1353 67.6569 22.1536C70.1182 22.1536 71.7938 23.9875 71.7938 27.2491V27.8875L65.0916 27.8759Z" fill="#455C6F"/>
<path d="M79.1893 27.5625H78.7271C77.5022 27.5625 75.4685 27.6554 75.4685 29.0018C75.4685 29.8607 76.2889 30.2438 77.0053 30.2438C77.3012 30.2817 77.6018 30.2523 77.8848 30.1577C78.1677 30.0631 78.4259 29.9057 78.6401 29.6972C78.8543 29.4888 79.0191 29.2345 79.1221 28.9534C79.2252 28.6723 79.264 28.3715 79.2356 28.0732L79.1893 27.5625ZM79.3049 30.4643C79.016 30.9538 78.5998 31.3551 78.101 31.625C77.6022 31.8949 77.0397 32.0233 76.4738 31.9965C76.0735 32.0397 75.6685 31.9998 75.2842 31.8792C74.8999 31.7585 74.5444 31.5597 74.2398 31.2952C73.9353 31.0306 73.6882 30.706 73.5139 30.3414C73.3396 29.9768 73.2418 29.5801 73.2267 29.1759C73.2267 26.1349 76.5778 25.9259 78.7733 25.9259H79.3396V25.6822C79.3396 24.5215 78.496 23.9179 77.3058 23.9179C76.4276 23.9179 75.584 24.2661 74.96 24.8929L73.8045 23.6625C74.2915 23.1664 74.8757 22.7772 75.5201 22.5195C76.1646 22.2618 76.8552 22.1411 77.5485 22.1652C81.3156 22.1652 81.3156 25.0554 81.3156 26.3786V31.7991H79.3165L79.3049 30.4643Z" fill="#455C6F"/>
<path d="M83.6152 17H85.7876V31.7527H83.6152V17Z" fill="#455C6F"/>
<path d="M87.2321 24.3821V22.3857H89.0463V19.6812H91.2187V22.3857H93.6454V24.3821H91.265V28.4562C91.265 29.3964 91.5192 29.9884 92.5014 29.9884C92.9174 30 93.3334 29.9071 93.6916 29.6866V31.7062C93.137 31.9384 92.5361 32.0312 91.9467 32.0196C89.6009 32.0196 89.0578 30.9402 89.0578 28.7V24.3589L87.2321 24.3821Z" fill="#455C6F"/>
<path d="M97.5396 23.6973C97.7781 23.2151 98.1506 22.8127 98.612 22.5388C99.0734 22.2648 99.604 22.131 100.14 22.1536C102.508 22.1536 103.387 23.9295 103.387 25.8446V31.7643H101.214V27.0054C101.214 25.9259 101.145 24.2545 99.5964 24.2545C98.0711 24.2545 97.5742 25.392 97.5742 26.6455V31.7527H95.4133V17H97.5858L97.5396 23.6973Z" fill="#455C6F"/>
</g>
<defs>
<clipPath id="clip0">
<rect width="104" height="32" fill="white"/>
</clipPath>
</defs>
</svg>
