<svg width="16" height="12" viewBox="0 0 16 12" fill="none" xmlns="http://www.w3.org/2000/svg">
<path d="M1.32812 6C1.35938 7.13542 1.75 8.07812 2.5 8.82812C3.25 9.57812 4.19271 9.96875 5.32812 10H10.6719C11.2031 10 11.7083 9.90104 12.1875 9.70312C12.6771 9.49479 13.1094 9.20312 13.4844 8.82812C13.8698 8.44271 14.1615 8.01042 14.3594 7.53125C14.5677 7.04167 14.6719 6.53125 14.6719 6C14.6406 4.86458 14.25 3.92188 13.5 3.17188C12.75 2.42188 11.8073 2.03125 10.6719 2H5.32812C4.79688 2 4.28646 2.10417 3.79688 2.3125C3.30729 2.51042 2.875 2.80208 2.5 3.1875C2.125 3.5625 1.83333 3.99479 1.625 4.48438C1.42708 4.96354 1.32812 5.46875 1.32812 6ZM0 6C0.0416667 4.48958 0.5625 3.23438 1.5625 2.23438C2.5625 1.22396 3.81771 0.703125 5.32812 0.671875H10.6719C12.1823 0.703125 13.4375 1.22396 14.4375 2.23438C15.4375 3.23438 15.9583 4.48958 16 6C15.9583 7.51042 15.4375 8.77083 14.4375 9.78125C13.4375 10.7812 12.1823 11.2969 10.6719 11.3281H5.32812C3.81771 11.2969 2.5625 10.7812 1.5625 9.78125C0.5625 8.77083 0.0416667 7.51042 0 6ZM10.6719 8.67188C10.1823 8.66146 9.73438 8.54167 9.32812 8.3125C8.92188 8.07292 8.59896 7.74479 8.35938 7.32812C8.11979 6.91146 8 6.46875 8 6C8 5.53125 8.11979 5.08854 8.35938 4.67188C8.59896 4.25521 8.92188 3.93229 9.32812 3.70312C9.73438 3.46354 10.1823 3.33854 10.6719 3.32812C11.4219 3.34896 12.0469 3.60938 12.5469 4.10938C13.0573 4.60938 13.3177 5.23958 13.3281 6C13.3177 6.76042 13.0573 7.39062 12.5469 7.89062C12.0469 8.39062 11.4219 8.65104 10.6719 8.67188ZM10.6719 7.32812C11.0469 7.31771 11.3594 7.1875 11.6094 6.9375C11.8594 6.6875 11.9844 6.375 11.9844 6C11.9844 5.625 11.8594 5.3125 11.6094 5.0625C11.3594 4.8125 11.0417 4.6875 10.6562 4.6875C10.2812 4.6875 9.96875 4.8125 9.71875 5.0625C9.46875 5.3125 9.34375 5.625 9.34375 6C9.34375 6.375 9.46875 6.6875 9.71875 6.9375C9.96875 7.1875 10.2865 7.31771 10.6719 7.32812Z" fill="#60676E"/>
</svg>
