<svg width="14" height="16" viewBox="0 0 14 16" fill="none" xmlns="http://www.w3.org/2000/svg">
<path d="M1 4.67188H13C13.1875 4.66146 13.3438 4.59375 13.4688 4.46875C13.5938 4.34375 13.6562 4.1875 13.6562 4C13.6562 3.8125 13.5938 3.65625 13.4688 3.53125C13.3438 3.40625 13.1875 3.33854 13 3.32812H1C0.8125 3.33854 0.65625 3.40625 0.53125 3.53125C0.40625 3.65625 0.34375 3.8125 0.34375 4C0.34375 4.1875 0.40625 4.34375 0.53125 4.46875C0.65625 4.59375 0.8125 4.66146 1 4.67188ZM11 4V13.3281C11 13.5156 10.9323 13.6771 10.7969 13.8125C10.6719 13.9375 10.5156 14 10.3281 14H3.67188C3.48438 14 3.32292 13.9375 3.1875 13.8125C3.0625 13.6771 3 13.5156 3 13.3281V4C3 3.875 2.96875 3.76562 2.90625 3.67188C2.85417 3.56771 2.77604 3.48438 2.67188 3.42188C2.56771 3.35938 2.45312 3.32812 2.32812 3.32812C2.21354 3.32812 2.10417 3.35938 2 3.42188C1.89583 3.48438 1.8125 3.56771 1.75 3.67188C1.69792 3.76562 1.67188 3.875 1.67188 4V13.3281C1.68229 13.901 1.875 14.375 2.25 14.75C2.625 15.125 3.09896 15.3177 3.67188 15.3281H10.3281C10.901 15.3177 11.375 15.125 11.75 14.75C12.125 14.375 12.3177 13.901 12.3281 13.3281V4C12.3281 3.8125 12.2656 3.65625 12.1406 3.53125C12.0156 3.40625 11.8594 3.34375 11.6719 3.34375C11.4844 3.34375 11.3229 3.40625 11.1875 3.53125C11.0625 3.65625 11 3.8125 11 4ZM5 4V2.67188C5 2.48438 5.0625 2.32812 5.1875 2.20312C5.32292 2.06771 5.48438 2 5.67188 2H8.32812C8.51562 2 8.67188 2.06771 8.79688 2.20312C8.93229 2.32812 9 2.48438 9 2.67188V4C9 4.1875 9.0625 4.34375 9.1875 4.46875C9.32292 4.59375 9.48438 4.65625 9.67188 4.65625C9.85938 4.65625 10.0156 4.59375 10.1406 4.46875C10.2656 4.34375 10.3281 4.1875 10.3281 4V2.67188C10.3177 2.09896 10.125 1.625 9.75 1.25C9.375 0.875 8.90104 0.682292 8.32812 0.671875H5.67188C5.09896 0.682292 4.625 0.875 4.25 1.25C3.875 1.625 3.68229 2.09896 3.67188 2.67188V4C3.67188 4.125 3.69792 4.23958 3.75 4.34375C3.8125 4.4375 3.89583 4.51562 4 4.57812C4.10417 4.64062 4.21354 4.67188 4.32812 4.67188C4.45312 4.67188 4.56771 4.64062 4.67188 4.57812C4.77604 4.51562 4.85417 4.4375 4.90625 4.34375C4.96875 4.23958 5 4.125 5 4ZM5 7.32812V11.3281C5 11.5156 5.0625 11.6771 5.1875 11.8125C5.32292 11.9375 5.48438 12 5.67188 12C5.85938 12 6.01562 11.9375 6.14062 11.8125C6.26562 11.6771 6.32812 11.5156 6.32812 11.3281V7.32812C6.32812 7.14062 6.26562 6.98438 6.14062 6.85938C6.01562 6.73438 5.85938 6.67188 5.67188 6.67188C5.48438 6.67188 5.32292 6.73438 5.1875 6.85938C5.0625 6.98438 5 7.14062 5 7.32812ZM7.67188 7.32812V11.3281C7.67188 11.5156 7.73438 11.6771 7.85938 11.8125C7.98438 11.9375 8.14062 12 8.32812 12C8.51562 12 8.67188 11.9375 8.79688 11.8125C8.93229 11.6771 9 11.5156 9 11.3281V7.32812C9 7.14062 8.93229 6.98438 8.79688 6.85938C8.67188 6.73438 8.51562 6.67188 8.32812 6.67188C8.14062 6.67188 7.98438 6.73438 7.85938 6.85938C7.73438 6.98438 7.67188 7.14062 7.67188 7.32812Z" fill="#60676E"/>
</svg>
