<svg width="14" height="16" viewBox="0 0 14 16" fill="none" xmlns="http://www.w3.org/2000/svg">
<path d="M5 2H9V1.32812C9 1.14062 9.0625 0.984375 9.1875 0.859375C9.32292 0.734375 9.48438 0.671875 9.67188 0.671875C9.85938 0.671875 10.0156 0.734375 10.1406 0.859375C10.2656 0.984375 10.3281 1.14062 10.3281 1.32812V2H11.6719C12.2344 2.01042 12.7031 2.20312 13.0781 2.57812C13.4531 2.95312 13.651 3.42708 13.6719 4V13.3438C13.651 13.9062 13.4531 14.375 13.0781 14.75C12.7031 15.125 12.2344 15.3177 11.6719 15.3281H2.32812C1.76562 15.3177 1.29688 15.125 0.921875 14.75C0.546875 14.375 0.348958 13.9062 0.328125 13.3438V4C0.348958 3.42708 0.546875 2.95312 0.921875 2.57812C1.29688 2.20312 1.76562 2.01042 2.32812 2H3.67188V1.32812C3.67188 1.21354 3.69792 1.10417 3.75 1C3.8125 0.895833 3.89583 0.817708 4 0.765625C4.10417 0.703125 4.21354 0.671875 4.32812 0.671875C4.45312 0.671875 4.56771 0.703125 4.67188 0.765625C4.77604 0.817708 4.85417 0.895833 4.90625 1C4.96875 1.10417 5 1.21354 5 1.32812V2ZM12.3281 7.32812H1.67188V13.3438C1.67188 13.5312 1.73438 13.6875 1.85938 13.8125C1.98438 13.9375 2.14062 14 2.32812 14H11.6719C11.8594 14 12.0156 13.9375 12.1406 13.8125C12.2656 13.6875 12.3281 13.5312 12.3281 13.3438V7.32812ZM5 3.32812V4C5 4.125 4.96875 4.23958 4.90625 4.34375C4.85417 4.4375 4.77604 4.51562 4.67188 4.57812C4.56771 4.64062 4.45312 4.67188 4.32812 4.67188C4.21354 4.67188 4.10417 4.64062 4 4.57812C3.89583 4.51562 3.8125 4.4375 3.75 4.34375C3.69792 4.23958 3.67188 4.125 3.67188 4V3.32812H2.32812C2.15104 3.33854 1.99479 3.40625 1.85938 3.53125C1.73438 3.65625 1.67188 3.8125 1.67188 4V6H12.3281V4C12.3281 3.8125 12.2604 3.65625 12.125 3.53125C12 3.40625 11.849 3.33854 11.6719 3.32812H10.3281V4C10.3281 4.1875 10.2656 4.34375 10.1406 4.46875C10.0156 4.59375 9.85938 4.65625 9.67188 4.65625C9.48438 4.65625 9.32292 4.59375 9.1875 4.46875C9.0625 4.34375 9 4.1875 9 4V3.32812H5Z" fill="#60686E"/>
</svg>
